%YAML 1.1
%TAG !u! tag:unity3d.com,2011:
--- !u!1045 &1
EditorBuildSettings:
  m_ObjectHideFlags: 0
  serializedVersion: 2
  m_Scenes:
  - enabled: 1
    path: Assets/_Scenes/Intro.unity
    guid: 438eee415978bcc489eebccb911eb8c0
  - enabled: 1
    path: Assets/_Scenes/Game.unity
    guid: ddd3b2bbd2aa8e54e9bd9852a8c66b45
  m_configObjects: {}
