%YAML 1.1
%TAG !u! tag:unity3d.com,2011:
--- !u!221 &22100000
AnimatorOverrideController:
  m_ObjectHideFlags: 0
  m_PrefabParentObject: {fileID: 0}
  m_PrefabInternal: {fileID: 0}
  m_Name: Ciborg
  m_Controller: {fileID: 9100000, guid: c9e6d62dd61292841801e1fcb409311e, type: 2}
  m_Clips:
  - m_OriginalClip: {fileID: 7400000, guid: c34c11a3cb5a44d4bb78eec1823c18a9, type: 2}
    m_OverrideClip: {fileID: 7400000, guid: 1d5b11c2b8a46e442b2a6ff24443b829, type: 2}
  - m_OriginalClip: {fileID: 7400000, guid: 201b99566f49ca246bab55bc44198b0f, type: 2}
    m_OverrideClip: {fileID: 7400000, guid: 543944a2dd3ffb54eb989ceb64957641, type: 2}
