Id	Title	Choices	Traits	EnterAnimation	Character	NecessaryChoices
1	We are in need for more parties and such! Please, Mr. Bob!	1/2	2:80	1	7	
2	We have many spare cargo to throw away and get to save some energy.	3/4	1:20/2:30/3:60	1	8	
3	We are short on manpower. We can hire kids to do some hard work and save some energy and time.	5/6	1:20/2:10/3:90	1	5	
4	It would be nice to have some heated pools for us to relax a bit, don't you think?	7/8	2:80	1	3	
5	We have to redirect some energy to power up our defensive weapons. What if we get attacked?	9/10	2:50	1	8	
6	People are asking to power up the air conditioning. It's a little hot in here.	11/2	2:40	1	3	
7	Seems like we are out of course for some time. Should we power the engines to get back on track?	13/14	2:30/3:60	1	6	
8	There is some stars where we can get some energy, but there is a cost to get near them.	15/16	1:20/2:50	1	1	
9	We could use a movie theater in here! We are very outdated of what is going on in Hollowood!	17/18	2:80	1	7	
10	Is there any way to powerup the food generation? There is always more space to food!	19/20	2:50	1	3	
11	We are defenseless in case any other ship or life form try to wipe us out, let's power up our shields!	21/22	3:50	1	8	
12	We can't contact any life form with the radio power we have, let's power it up!	23/24	2:70	1	8	
13	We've taken too much damage to our hull, let's mobilize the machines to fix it.	25/26	2:30/3:60	1	8	46
14	Some of us doesn't like to always rely on a machine! Give some energy for our Captain command too!	27/28	2:20/3:70	1	4	
15	Let's give away some of this new oxygen experiment to save even more energy, what do you think?	29/30	1:20/2:20/3:80	1	5	39
16	Me and my people have turned into refugees and we need somewhere to stay!	31/32	2:40	1	9	
17	Mr. Bob! Mr. Bob! I'm scared of the dark, can't we just keep our daily lights on for more time?	33/34	2:60/3:50	1	7	35
18	I have a wonderful idea but I need some resources to do experiments on it, what do you think?	35/36	3:80	1	2	
19	I've come from the world that you explored, and to get more energy some of us should be sacrificed.	37/38	1:20/2:10/3:90	1	9	41
20	I've brought knowledge on how to purificate the air! Can I put it into practice, machine?	39/40	3:70	1	1	32
21	We've found a planet that's not in our maps, should we explore it?	41/42	2:50	1	1	
22	We should repair our damaged hull for it to sustain through the journey.	43/44	2:30/3:50	1	6	
23	We need to change our route! There is an asteroid belt very near to us!	45/46	3:30	1	1	