Id	Title	Speak	TraitModifier	ExitAnimation
1	Agree	I do think that is a wonderful idea, little kid.	1:-20/2:30/3:30	2
2	Disagree	I don't think that's important right now, you should be with your parents, little one.	2:-10	2
3	Agree	Yes, that sound promissing. Throw it at once.	1:20/2:-10/3:40	2
4	Disagree	How are you so sure there is nothing important there? Don't do it.	2:10/3:-30	2
5	Agree	The little ones already had their free time. It's time to get to work for a better future of us all.	1:30/2:-50/3:70	2
6	Disagree	The little ones already have their share of work inspiring us. Leave now.	3:10	2
7	Agree	You all deserve some free time.	1:-20/2:30/3:30	2
8	Disagree	It would cost what we don't have.	2:-10	2
9	Agree	Consider it done. If they come, they will have it.	1:-50/2:20/3:-30	2
10	Disagree	We are as peaceful as we hope our enemies to be.	2:10/3:-10	2
11	Agree	As I can't tell, I believe in you.	1:-40/2:20/3:-30	2
12	Disagree	As I can't tell, I prefer to save this energy for later.	2:-40/3:30	2
13	Agree	We have to stay focused on our mission!	1:-20/2:20	2
14	Disagree	We don't have the luxury to do that, let's see what this new path brings us.	3:40	2
15	Agree	We have to get everything we can.	1:30/2:20/3:-10	2
16	Disagree	We are still good with what we have.	2:20/3:30	2
17	Agree	Go on and get some popcorn!	1:-40/2:30/3:10	2
18	Disagree	Hollowood will have to wait until we get to our new home.	2:-30/3:10	2
19	Agree	Food is a basic requirement for human lives, you are about right!	1:-10/2:20/3:-50	2
20	Disagree	There is still plenty for us there.. Maybe not for you, as I see.	2:-30/3:20	2
21	Agree	As peaceful as we are, there sure are evil intends in the depths of the universe.	1:-20/2:30/3:-50	2
22	Disagree	As long as we don't take on anyone, I can't see why the need.	2:-40/3:20	2
23	Agree	It would be nice to get in contact to other lifeforms besides ours!	1:-10/2:30/3:-20	2
24	Disagree	It's supposed to be a safe, and quiet, journey.	2:-40/3:20	2
25	Agree	Fix it at once, as we have to be prepared for the next enviroment assault.	1:30/2:20/3:-40	2
26	Disagree	I don't see the need, as we are just traveling straight to our goal.	2:-10	2
27	Agree	He can get this spare of energy we have, but use it in moderation!	1:-10/2:20/3:30	2
28	Disagree	He doesn't have the view and progress that I have.	2:-20/3:20	2
29	Agree	Energy is the primary resource to get us to the end of our journey.	1:30/2:-20/3:30	2
30	Disagree	If our people can't even breathe nicely, what is there for them to do?	2:20/3:-20	2
31	Agree	We have plenty of room, make yourself at home.	1:-10/2:20/3:30	2
32	Disagree	As much as it seems that we have room for you, there isn't that many supplies.	2:-20/3:10	2
33	Agree	It's good to know that there's someone that worried with us all. Thanks, little one.	1:-10/2:30/3:-30	2
34	Disagree	There is always someone protecting you, little one. There is no need for it.	2:-10	2
35	Agree	Human progress cannot be stopped by our travels.	1:-20/3:20	2
36	Disagree	You should keep your ideas with yourself until we reach our destiny.	3:-20	2
37	Agree	I wouldn't argue, as long as it brings more energy for us.	1:30/2:-60/3:60	2
38	Disagree	We are in need, but humans are humans until the end.	2:10	2
39	Agree	I can't tell, so I will believe in you.	1:-20/2:30/3:-30	2
40	Disagree	I sense in my monitors that we don't have the biological need for it, yet.	2:-20/3:30	2
41	Agree	If there is a chance to get more supplies over there, I agree.	1:-20/2:30	2
42	Disagree	Our mission is one and only, and we must not deviate from it.	2:-10	2
43	Agree	You made your point, get it done.	1:-10/2:30/3:-50	2
44	Disagree	We are well suited for the rest of the mission.	2:-10/3:40	2
45	Agree	We can't take this kind of damage and scare the living people in here, do it now!	1:-10/2:30/3:-40	2
46	Disagree	As we can't get the luxury to do this, we must go and take the challenge head on.	2:-30/3:40	2